Multiple ITS control introduction for slope change 2nd example (two-stage) • multipleITScontrol
…
intervention_dates <- c(as.Date("2022-04-04"), as.Date("2022-06-06"))
transformed_data <- 
  multipleITScontrol::transform_data(df = its_data_gp,
               time_var = "Date",
               group_var = "group_var",
               outcome_var =  "score",
               intervention_dates = intervention_dates)

Returns the initial data frame with a few transformed variables
needed for interrupted time series.

#> # A tibble: 104 × 13
#> # Groups:   category [2]
#>    time       category  Period   outcome     x time_index level_pre_intervention
#>    <date>     <chr>     <chr>      <dbl> <dbl>      <int>                  <dbl>
#>  1 2022-01-03 treatment Pre-int…    14.8     1          1                      1
#>  2 2022-01-03 control   Pre-int…    14.9     0          1                      1
#>  3 2022-01-10 treatment Pre-int…    14.7     1          2                      1
#>  4 2022-01-10 control   Pre-int…    14.9     0          2                      1
#>  5 2022-01-17 treatment Pre-int…    14.5     1          3                      1
#>  6 2022-01-17 control   Pre-int…    15.1     0          3                      1
#>  7 2022-01-24 treatment Pre-int…    14.7     1          4                      1
#>  8 2022-01-24 control   Pre-int…    15       0          4                      1
#>  9 2022-01-31 treatment Pre-int…    14.9     1          5                      1
#> 10 2022-01-31 control   Pre-int…    15.1     0          5                      1
#> # ℹ 94 more rows
#> # ℹ 6 more variables: level_1_intervention <dbl>,
#> #   level_1_intervention_internal <dbl>, slope_1_intervention <dbl>,
#> #   level_2_intervention <dbl>, level_2_intervention_internal <dbl>,
#> #   slope_2_intervention <dbl>
…
