…
``` r
transformed_data <- 
  multipleITScontrol::transform_data(df = its_data_school,
                                     time_var = "Date",
                                     group_var = "group_var",
                                     outcome_var = "score",
                                     intervention_dates = as.Date(c("2025-09-05", "2026-03-06")))
```

Returns the initial data frame with a few transformed variables needed
for interrupted time series.

    #> # A tibble: 156 × 13
    #> # Groups:   category [2]
    #>    time       category  Period   outcome     x time_index level_pre_intervention
    #>    <date>     <chr>     <chr>      <dbl> <dbl>      <int>                  <dbl>
    #>  1 2025-03-07 treatment Pre-int…    82       1          1                      1
    #>  2 2025-03-07 control   Pre-int…    81.8     0          1                      1
    #>  3 2025-03-14 treatment Pre-int…    81.9     1          2                      1
    #>  4 2025-03-14 control   Pre-int…    81.6     0          2                      1
    #>  5 2025-03-21 treatment Pre-int…    81.6     1          3                      1
    #>  6 2025-03-21 control   Pre-int…    81.9     0          3                      1
    #>  7 2025-03-28 treatment Pre-int…    81.8     1          4                      1
    #>  8 2025-03-28 control   Pre-int…    82       0          4                      1
    #>  9 2025-04-04 treatment Pre-int…    82.4     1          5                      1
    #> 10 2025-04-04 control   Pre-int…    81.8     0          5                      1
    #> # ℹ 146 more rows
    #> # ℹ 6 more variables: level_1_intervention <dbl>,
    #> #   level_1_intervention_internal <dbl>, slope_1_intervention <dbl>,
    #> #   level_2_intervention <dbl>, level_2_intervention_internal <dbl>,
    #> #   slope_2_intervention <dbl>
…
