Multiple ITS control introduction for level change (two-stage example) • multipleITScontrol
…
intervention_dates <- c(as.Date("2023-04-03"), as.Date("2023-06-05"))
transformed_data <- 
  multipleITScontrol::transform_data(df = tibble_data,
               time_var = "Date",
               group_var = "group_var",
               outcome_var =  "score",
               intervention_dates = intervention_dates)

Returns the initial data frame with a few transformed variables
needed for interrupted time series.

#> # A tibble: 104 × 13
#> # Groups:   category [2]
#>    time       category  Period   outcome     x time_index level_pre_intervention
#>    <date>     <chr>     <chr>      <dbl> <dbl>      <int>                  <dbl>
#>  1 2023-01-02 treatment Pre-int…    35.2     1          1                      1
#>  2 2023-01-02 control   Pre-int…    34.3     0          1                      1
#>  3 2023-01-09 treatment Pre-int…    32.2     1          2                      1
#>  4 2023-01-09 control   Pre-int…    35.9     0          2                      1
#>  5 2023-01-16 treatment Pre-int…    34.3     1          3                      1
#>  6 2023-01-16 control   Pre-int…    34.2     0          3                      1
#>  7 2023-01-23 treatment Pre-int…    37.1     1          4                      1
#>  8 2023-01-23 control   Pre-int…    34.4     0          4                      1
#>  9 2023-01-30 treatment Pre-int…    35.8     1          5                      1
#> 10 2023-01-30 control   Pre-int…    35.0     0          5                      1
#> # ℹ 94 more rows
#> # ℹ 6 more variables: level_1_intervention <dbl>,
#> #   level_1_intervention_internal <dbl>, slope_1_intervention <dbl>,
#> #   level_2_intervention <dbl>, level_2_intervention_internal <dbl>,
#> #   slope_2_intervention <dbl>
…
